<?xml version="1.0" encoding="UTF-8" standalone="no"?>
<svg
        version="1.1"
        xmlns="http://www.w3.org/2000/svg"
        preserveAspectRatio="xMidYMid meet"
        viewBox="0 0 200 200"
        width="200"
        height="200"
>
    <defs>
        <radialGradient id="grad" cx="50%" cy="50%" fx="50%" fy="50%">
            <stop
                    id="gradStopMid"
                    offset="0%"
                    stop-color="#00f"
                    stop-opacity="1"
            />
            <stop
                    id="gradStopOut"
                    offset="100%"
                    stop-color="#004"
                    stop-opacity="1"
            />
        </radialGradient>

        <clipPath id="textBackground1">
            <circle
                    cx="100"
                    cy="100"
                    r="100"
            />
        </clipPath>
        <mask id="maskTest">
            <g>
                <circle
                        r="100"
                        cy="100"
                        cx="100"
                        fill="#FFFFFF"
                />
                <text
                        font-size="45"
                        font-family="sans-serif"
                        text-anchor="middle"
                        x="100"
                        y="115"
                        fill="#000000"
                >
                    Example
                </text>
            </g>
        </mask>
    </defs>
    <rect
            width="200"
            height="200"
            y="0"
            x="0"
            fill="url(#grad)"
            mask="url(#maskTest)"
    />
</svg>